Get started • forcis
…
N.B. The package forcis is designed to
handle the versioning of the database on Zenodo. Read the Database
versions for more information.

Import FORCIS data

In this vignette, we will use the plankton nets data of the FORCIS
database. Let’s import the latest release of the data.

# Import plankton nets data ----
net_data <- read_plankton_nets_data(path = "data")

# Print data ----
net_data
#> # A tibble: 2,451 × 86
#>    data_type cruise_id    profile_id sample_id sample_min_depth sample_max_depth
#>    <chr>     <chr>        <chr>      <chr>                <dbl>            <dbl>
#>  1 Net       ATLANTIS_II… ATLANTIS_… ATLANTIS…                0               86
#>  2 Net       ATLANTIS_II… ATLANTIS_… ATLANTIS…                0               86
#>  3 Net       ATLANTIS_II… ATLANTIS_… ATLANTIS…                0              118
#>  4 Net       ATLANTIS_II… ATLANTIS_… ATLANTIS…                0              106
#>  5 Net       ATLANTIS_II… ATLANTIS_… ATLANTIS…                0              118
#>  6 Net       ATLANTIS_II… ATLANTIS_… ATLANTIS…                0               86
#>  7 Net       ATLANTIS_II… ATLANTIS_… ATLANTIS…                0               64
#>  8 Net       ATLANTIS_II… ATLANTIS_… ATLANTIS…                0               73
#>  9 Net       ATLANTIS_II… ATLANTIS_… ATLANTIS…                0               83
#> 10 Net       ATLANTIS_II… ATLANTIS_… ATLANTIS…                0              127
#> # ℹ 2,441 more rows
#> # ℹ 80 more variables: profile_depth_min <int>, profile_depth_max <dbl>,
#> #   profile_date_time <chr>, cast_net_op_m2 <dbl>, subsample_id <chr>,
#> #   sample_segment_length <lgl>, subsample_count_type <chr>,
#> #   subsample_size_fraction_min <int>, subsample_size_fraction_max <int>,
#> #   site_lat_start_decimal <dbl>, site_lon_start_decimal <dbl>,
#> #   sample_volume_filtered <dbl>, …
…
After importing the data and before going any further, the next step
involves choosing the taxonomic level for the analyses. This is
mandatory to avoid duplicated records.

Let’s use the function select_taxonomy() to select the
VT taxonomy (validated taxonomy):

# Select taxonomy ----
net_data_vt <- net_data |>
  select_taxonomy(taxonomy = "VT")

net_data_vt
#> # A tibble: 2,451 × 80
#>    data_type cruise_id    profile_id sample_id sample_min_depth sample_max_depth
#>    <chr>     <chr>        <chr>      <chr>                <dbl>            <dbl>
#>  1 Net       ATLANTIS_II… ATLANTIS_… ATLANTIS…                0               86
#>  2 Net       ATLANTIS_II… ATLANTIS_… ATLANTIS…                0               86
#>  3 Net       ATLANTIS_II… ATLANTIS_… ATLANTIS…                0              118
#>  4 Net       ATLANTIS_II… ATLANTIS_… ATLANTIS…                0              106
#>  5 Net       ATLANTIS_II… ATLANTIS_… ATLANTIS…                0              118
#>  6 Net       ATLANTIS_II… ATLANTIS_… ATLANTIS…                0               86
#>  7 Net       ATLANTIS_II… ATLANTIS_… ATLANTIS…                0               64
#>  8 Net       ATLANTIS_II… ATLANTIS_… ATLANTIS…                0               73
#>  9 Net       ATLANTIS_II… ATLANTIS_… ATLANTIS…                0               83
#> 10 Net       ATLANTIS_II… ATLANTIS_… ATLANTIS…                0              127
#> # ℹ 2,441 more rows
#> # ℹ 74 more variables: profile_depth_min <int>, profile_depth_max <dbl>,
#> #   profile_date_time <chr>, cast_net_op_m2 <dbl>, subsample_id <chr>,
#> #   sample_segment_length <lgl>, subsample_count_type <chr>,
#> #   subsample_size_fraction_min <int>, subsample_size_fraction_max <int>,
#> #   site_lat_start_decimal <dbl>, site_lon_start_decimal <dbl>,
#> #   sample_volume_filtered <dbl>, …
…
# Search for species containing the word 'pachyderma' ----
species_list[grep("pachyderma", species_list)]
#> [1] "n_pachyderma_VT"          "n_pachyderma_incompta_VT"

# Store the species name ----
sp_name <- "n_pachyderma_VT"

Species filter

# Filter data by species ----
net_data_vt_pachyderma <- net_data_vt |>
  filter_by_species(species = sp_name)

net_data_vt_pachyderma
#> # A tibble: 2,451 × 25
#>    data_type cruise_id    profile_id sample_id sample_min_depth sample_max_depth
#>    <chr>     <chr>        <chr>      <chr>                <dbl>            <dbl>
#>  1 Net       ATLANTIS_II… ATLANTIS_… ATLANTIS…                0               86
#>  2 Net       ATLANTIS_II… ATLANTIS_… ATLANTIS…                0               86
#>  3 Net       ATLANTIS_II… ATLANTIS_… ATLANTIS…                0              118
#>  4 Net       ATLANTIS_II… ATLANTIS_… ATLANTIS…                0              106
#>  5 Net       ATLANTIS_II… ATLANTIS_… ATLANTIS…                0              118
#>  6 Net       ATLANTIS_II… ATLANTIS_… ATLANTIS…                0               86
#>  7 Net       ATLANTIS_II… ATLANTIS_… ATLANTIS…                0               64
#>  8 Net       ATLANTIS_II… ATLANTIS_… ATLANTIS…                0               73
#>  9 Net       ATLANTIS_II… ATLANTIS_… ATLANTIS…                0               83
#> 10 Net       ATLANTIS_II… ATLANTIS_… ATLANTIS…                0              127
#> # ℹ 2,441 more rows
#> # ℹ 19 more variables: profile_depth_min <int>, profile_depth_max <dbl>,
#> #   profile_date_time <chr>, cast_net_op_m2 <dbl>, subsample_id <chr>,
#> #   sample_segment_length <lgl>, subsample_count_type <chr>,
#> #   subsample_size_fraction_min <int>, subsample_size_fraction_max <int>,
#> #   site_lat_start_decimal <dbl>, site_lon_start_decimal <dbl>,
#> #   sample_volume_filtered <dbl>, …

# Remove empty samples for N. pachyderma ----
net_data_vt_pachyderma <- net_data_vt_pachyderma |>
  dplyr::filter(n_pachyderma_VT > 0)

net_data_vt_pachyderma
#> # A tibble: 823 × 25
#>    data_type cruise_id profile_id    sample_id sample_min_depth sample_max_depth
#>    <chr>     <chr>     <chr>         <chr>                <dbl>            <dbl>
#>  1 Net       NIOP-C1   NIOP-C1_309-… NIOP-C1_…             28.3             49.5
#>  2 Net       NIOP-C1   NIOP-C1_309-… NIOP-C1_…              8               18.2
#>  3 Net       NIOP-C1   NIOP-C1_310-… NIOP-C1_…             74.3             99.6
#>  4 Net       NIOP-C1   NIOP-C1_310-… NIOP-C1_…             48.5             74.3
#>  5 Net       NIOP-C1   NIOP-C1_310-… NIOP-C1_…             23.3             48.5
#>  6 Net       NIOP-C1   NIOP-C1_310-… NIOP-C1_…              8.1             23.3
#>  7 Net       NIOP-C1   NIOP-C1_310-… NIOP-C1_…            298.             498. 
#>  8 Net       NIOP-C1   NIOP-C1_310-… NIOP-C1_…            200.             298. 
#>  9 Net       NIOP-C1   NIOP-C1_310-… NIOP-C1_…            148.             200. 
#> 10 Net       NIOP-C1   NIOP-C1_313-… NIOP-C1_…             74.8             99.6
#> # ℹ 813 more rows
#> # ℹ 19 more variables: profile_depth_min <int>, profile_depth_max <dbl>,
#> #   profile_date_time <chr>, cast_net_op_m2 <dbl>, subsample_id <chr>,
#> #   sample_segment_length <lgl>, subsample_count_type <chr>,
#> #   subsample_size_fraction_min <int>, subsample_size_fraction_max <int>,
#> #   site_lat_start_decimal <dbl>, site_lon_start_decimal <dbl>,
#> #   sample_volume_filtered <dbl>, …
…
